%YAML 1.1
%TAG !u! tag:unity3d.com,2011:
--- !u!74 &7400000
AnimationClip:
  m_ObjectHideFlags: 0
  m_PrefabParentObject: {fileID: 0}
  m_PrefabInternal: {fileID: 0}
  m_Name: Dead
  serializedVersion: 6
  m_Legacy: 0
  m_Compressed: 0
  m_UseHighQualityCurve: 1
  m_RotationCurves: []
  m_CompressedRotationCurves: []
  m_EulerCurves: []
  m_PositionCurves: []
  m_ScaleCurves: []
  m_FloatCurves: []
  m_PPtrCurves:
  - curve:
    - time: 0
      value: {fileID: 21300000, guid: cb82d2a2b8f283646982fff15f0a79f1, type: 3}
    - time: 0.083333336
      value: {fileID: 21300000, guid: b886eb0a97fbcf440b0b68bd33298441, type: 3}
    - time: 0.16666667
      value: {fileID: 21300000, guid: a26535cfdd8503344be0e8c187e3d178, type: 3}
    - time: 0.25
      value: {fileID: 21300000, guid: f5828526e4e027a499ae72b2d4d486c9, type: 3}
    - time: 0.33333334
      value: {fileID: 21300000, guid: 64b11b95b99661144ae6a3cf0a4a1150, type: 3}
    - time: 0.41666666
      value: {fileID: 21300000, guid: ec463af46766ae54abd03ab1fc82aadb, type: 3}
    - time: 0.5
      value: {fileID: 21300000, guid: 166bb3b2d5522bd43827f8e6e94cdd4f, type: 3}
    attribute: m_Sprite
    path: 
    classID: 212
    script: {fileID: 0}
  m_SampleRate: 12
  m_WrapMode: 0
  m_Bounds:
    m_Center: {x: 0, y: 0, z: 0}
    m_Extent: {x: 0, y: 0, z: 0}
  m_ClipBindingConstant:
    genericBindings:
    - serializedVersion: 2
      path: 0
      attribute: 0
      script: {fileID: 0}
      typeID: 212
      customType: 23
      isPPtrCurve: 1
    pptrCurveMapping:
    - {fileID: 21300000, guid: cb82d2a2b8f283646982fff15f0a79f1, type: 3}
    - {fileID: 21300000, guid: b886eb0a97fbcf440b0b68bd33298441, type: 3}
    - {fileID: 21300000, guid: a26535cfdd8503344be0e8c187e3d178, type: 3}
    - {fileID: 21300000, guid: f5828526e4e027a499ae72b2d4d486c9, type: 3}
    - {fileID: 21300000, guid: 64b11b95b99661144ae6a3cf0a4a1150, type: 3}
    - {fileID: 21300000, guid: ec463af46766ae54abd03ab1fc82aadb, type: 3}
    - {fileID: 21300000, guid: 166bb3b2d5522bd43827f8e6e94cdd4f, type: 3}
  m_AnimationClipSettings:
    serializedVersion: 2
    m_AdditiveReferencePoseClip: {fileID: 0}
    m_AdditiveReferencePoseTime: 0
    m_StartTime: 0
    m_StopTime: 0.5833333
    m_OrientationOffsetY: 0
    m_Level: 0
    m_CycleOffset: 0
    m_HasAdditiveReferencePose: 0
    m_LoopTime: 0
    m_LoopBlend: 0
    m_LoopBlendOrientation: 0
    m_LoopBlendPositionY: 0
    m_LoopBlendPositionXZ: 0
    m_KeepOriginalOrientation: 0
    m_KeepOriginalPositionY: 1
    m_KeepOriginalPositionXZ: 0
    m_HeightFromFeet: 0
    m_Mirror: 0
  m_EditorCurves: []
  m_EulerEditorCurves: []
  m_HasGenericRootTransform: 0
  m_HasMotionFloatCurves: 0
  m_GenerateMotionCurves: 0
  m_Events: []
