%YAML 1.1
%TAG !u! tag:unity3d.com,2011:
--- !u!74 &7400000
AnimationClip:
  m_ObjectHideFlags: 0
  m_PrefabParentObject: {fileID: 0}
  m_PrefabInternal: {fileID: 0}
  m_Name: TankRunAnimation
  serializedVersion: 6
  m_Legacy: 0
  m_Compressed: 0
  m_UseHighQualityCurve: 1
  m_RotationCurves: []
  m_CompressedRotationCurves: []
  m_EulerCurves: []
  m_PositionCurves: []
  m_ScaleCurves: []
  m_FloatCurves: []
  m_PPtrCurves:
  - curve:
    - time: 0
      value: {fileID: 21300000, guid: 280bb99fc9fe9eb4680934de4b9f0d39, type: 3}
    - time: 0.083333336
      value: {fileID: 21300000, guid: db5593c27e6e15f4db4dd0ca198ee440, type: 3}
    - time: 0.16666667
      value: {fileID: 21300000, guid: 43c37452fd6da2c41a13f919a79a4362, type: 3}
    - time: 0.25
      value: {fileID: 21300000, guid: 35a40ec3992ca0645ab3c8681984fd97, type: 3}
    - time: 0.33333334
      value: {fileID: 21300000, guid: 617095c9e4d270f4aab688d5a573a957, type: 3}
    - time: 0.41666666
      value: {fileID: 21300000, guid: 59adf1ac33c7e834e89d6aedb0db47e6, type: 3}
    - time: 0.5
      value: {fileID: 21300000, guid: f9c0f1a5d75f0dc44a799556783a7b89, type: 3}
    - time: 0.5833333
      value: {fileID: 21300000, guid: 6dd3f599963b09742833f1fedc638664, type: 3}
    - time: 0.6666667
      value: {fileID: 21300000, guid: 9c762da105ee5624f9eeea10c1cfc1d6, type: 3}
    - time: 0.75
      value: {fileID: 21300000, guid: a080db330cc14be4ab753d9bd1009671, type: 3}
    - time: 0.8333333
      value: {fileID: 21300000, guid: 04fff1df0d4c13d4fb3893764d849ac2, type: 3}
    - time: 0.9166667
      value: {fileID: 21300000, guid: a8a6483b0cb803149ae41667c1ab200b, type: 3}
    - time: 1
      value: {fileID: 21300000, guid: ef690508d1d7e654782ede82234ce793, type: 3}
    - time: 1.0833334
      value: {fileID: 21300000, guid: a088b88cddf1cd6469775f290b623233, type: 3}
    - time: 1.1666666
      value: {fileID: 21300000, guid: 9cb473752898b704d9127fb449c6f3d1, type: 3}
    - time: 1.25
      value: {fileID: 21300000, guid: e75ccd31ddee6994b91370c454e89466, type: 3}
    - time: 1.3333334
      value: {fileID: 21300000, guid: 94ddeb0790a0f5e4f896c36e0ac06878, type: 3}
    - time: 1.4166666
      value: {fileID: 21300000, guid: c19c8348388e0b74e8fec23f87953d05, type: 3}
    - time: 1.5
      value: {fileID: 21300000, guid: 0f73bc6e769d0d54aa6541f59d5c4ab9, type: 3}
    - time: 1.5833334
      value: {fileID: 21300000, guid: e0e66b400114779409b0ee28160eee2a, type: 3}
    attribute: m_Sprite
    path: 
    classID: 212
    script: {fileID: 0}
  m_SampleRate: 12
  m_WrapMode: 0
  m_Bounds:
    m_Center: {x: 0, y: 0, z: 0}
    m_Extent: {x: 0, y: 0, z: 0}
  m_ClipBindingConstant:
    genericBindings:
    - serializedVersion: 2
      path: 0
      attribute: 0
      script: {fileID: 0}
      typeID: 212
      customType: 23
      isPPtrCurve: 1
    pptrCurveMapping:
    - {fileID: 21300000, guid: 280bb99fc9fe9eb4680934de4b9f0d39, type: 3}
    - {fileID: 21300000, guid: db5593c27e6e15f4db4dd0ca198ee440, type: 3}
    - {fileID: 21300000, guid: 43c37452fd6da2c41a13f919a79a4362, type: 3}
    - {fileID: 21300000, guid: 35a40ec3992ca0645ab3c8681984fd97, type: 3}
    - {fileID: 21300000, guid: 617095c9e4d270f4aab688d5a573a957, type: 3}
    - {fileID: 21300000, guid: 59adf1ac33c7e834e89d6aedb0db47e6, type: 3}
    - {fileID: 21300000, guid: f9c0f1a5d75f0dc44a799556783a7b89, type: 3}
    - {fileID: 21300000, guid: 6dd3f599963b09742833f1fedc638664, type: 3}
    - {fileID: 21300000, guid: 9c762da105ee5624f9eeea10c1cfc1d6, type: 3}
    - {fileID: 21300000, guid: a080db330cc14be4ab753d9bd1009671, type: 3}
    - {fileID: 21300000, guid: 04fff1df0d4c13d4fb3893764d849ac2, type: 3}
    - {fileID: 21300000, guid: a8a6483b0cb803149ae41667c1ab200b, type: 3}
    - {fileID: 21300000, guid: ef690508d1d7e654782ede82234ce793, type: 3}
    - {fileID: 21300000, guid: a088b88cddf1cd6469775f290b623233, type: 3}
    - {fileID: 21300000, guid: 9cb473752898b704d9127fb449c6f3d1, type: 3}
    - {fileID: 21300000, guid: e75ccd31ddee6994b91370c454e89466, type: 3}
    - {fileID: 21300000, guid: 94ddeb0790a0f5e4f896c36e0ac06878, type: 3}
    - {fileID: 21300000, guid: c19c8348388e0b74e8fec23f87953d05, type: 3}
    - {fileID: 21300000, guid: 0f73bc6e769d0d54aa6541f59d5c4ab9, type: 3}
    - {fileID: 21300000, guid: e0e66b400114779409b0ee28160eee2a, type: 3}
  m_AnimationClipSettings:
    serializedVersion: 2
    m_AdditiveReferencePoseClip: {fileID: 0}
    m_AdditiveReferencePoseTime: 0
    m_StartTime: 0
    m_StopTime: 1.6666667
    m_OrientationOffsetY: 0
    m_Level: 0
    m_CycleOffset: 0
    m_HasAdditiveReferencePose: 0
    m_LoopTime: 1
    m_LoopBlend: 0
    m_LoopBlendOrientation: 0
    m_LoopBlendPositionY: 0
    m_LoopBlendPositionXZ: 0
    m_KeepOriginalOrientation: 0
    m_KeepOriginalPositionY: 1
    m_KeepOriginalPositionXZ: 0
    m_HeightFromFeet: 0
    m_Mirror: 0
  m_EditorCurves: []
  m_EulerEditorCurves: []
  m_HasGenericRootTransform: 0
  m_HasMotionFloatCurves: 0
  m_GenerateMotionCurves: 0
  m_Events: []
