%YAML 1.1
%TAG !u! tag:unity3d.com,2011:
--- !u!74 &7400000
AnimationClip:
  m_ObjectHideFlags: 0
  m_PrefabParentObject: {fileID: 0}
  m_PrefabInternal: {fileID: 0}
  m_Name: JumpAnimation
  serializedVersion: 6
  m_Legacy: 0
  m_Compressed: 0
  m_UseHighQualityCurve: 1
  m_RotationCurves: []
  m_CompressedRotationCurves: []
  m_EulerCurves: []
  m_PositionCurves: []
  m_ScaleCurves: []
  m_FloatCurves: []
  m_PPtrCurves:
  - curve:
    - time: 0
      value: {fileID: 21300000, guid: d8bc38135d26b3349891547d19763f73, type: 3}
    - time: 0.083333336
      value: {fileID: 21300000, guid: 45b250d81fd5ce24b978abc97514c326, type: 3}
    - time: 0.16666667
      value: {fileID: 21300000, guid: a90ca11884642b34cbbe67225f163683, type: 3}
    - time: 0.25
      value: {fileID: 21300000, guid: 89196cebbc46a3340b3829077232d2ac, type: 3}
    - time: 0.33333334
      value: {fileID: 21300000, guid: 306a39245e9450e459e7f1b6dadd5678, type: 3}
    - time: 0.41666666
      value: {fileID: 21300000, guid: dd163535c08fcba4eb1d34653bc415da, type: 3}
    - time: 0.5
      value: {fileID: 21300000, guid: 3e61cb9421994f14792297bd8059ba59, type: 3}
    - time: 0.5833333
      value: {fileID: 21300000, guid: 14a1f015159d9a14392c12d263577a78, type: 3}
    - time: 0.6666667
      value: {fileID: 21300000, guid: f869cd72dc2858041a5b4dc08ad6883e, type: 3}
    - time: 0.75
      value: {fileID: 21300000, guid: 68003fd2dd878564da7dde6af37f7b6e, type: 3}
    - time: 0.8333333
      value: {fileID: 21300000, guid: 037262f79e865c54a91da3864f377418, type: 3}
    attribute: m_Sprite
    path: 
    classID: 212
    script: {fileID: 0}
  m_SampleRate: 12
  m_WrapMode: 0
  m_Bounds:
    m_Center: {x: 0, y: 0, z: 0}
    m_Extent: {x: 0, y: 0, z: 0}
  m_ClipBindingConstant:
    genericBindings:
    - serializedVersion: 2
      path: 0
      attribute: 0
      script: {fileID: 0}
      typeID: 212
      customType: 23
      isPPtrCurve: 1
    pptrCurveMapping:
    - {fileID: 21300000, guid: d8bc38135d26b3349891547d19763f73, type: 3}
    - {fileID: 21300000, guid: 45b250d81fd5ce24b978abc97514c326, type: 3}
    - {fileID: 21300000, guid: a90ca11884642b34cbbe67225f163683, type: 3}
    - {fileID: 21300000, guid: 89196cebbc46a3340b3829077232d2ac, type: 3}
    - {fileID: 21300000, guid: 306a39245e9450e459e7f1b6dadd5678, type: 3}
    - {fileID: 21300000, guid: dd163535c08fcba4eb1d34653bc415da, type: 3}
    - {fileID: 21300000, guid: 3e61cb9421994f14792297bd8059ba59, type: 3}
    - {fileID: 21300000, guid: 14a1f015159d9a14392c12d263577a78, type: 3}
    - {fileID: 21300000, guid: f869cd72dc2858041a5b4dc08ad6883e, type: 3}
    - {fileID: 21300000, guid: 68003fd2dd878564da7dde6af37f7b6e, type: 3}
    - {fileID: 21300000, guid: 037262f79e865c54a91da3864f377418, type: 3}
  m_AnimationClipSettings:
    serializedVersion: 2
    m_AdditiveReferencePoseClip: {fileID: 0}
    m_AdditiveReferencePoseTime: 0
    m_StartTime: 0
    m_StopTime: 0.9166667
    m_OrientationOffsetY: 0
    m_Level: 0
    m_CycleOffset: 0
    m_HasAdditiveReferencePose: 0
    m_LoopTime: 0
    m_LoopBlend: 0
    m_LoopBlendOrientation: 0
    m_LoopBlendPositionY: 0
    m_LoopBlendPositionXZ: 0
    m_KeepOriginalOrientation: 0
    m_KeepOriginalPositionY: 1
    m_KeepOriginalPositionXZ: 0
    m_HeightFromFeet: 0
    m_Mirror: 0
  m_EditorCurves: []
  m_EulerEditorCurves: []
  m_HasGenericRootTransform: 0
  m_HasMotionFloatCurves: 0
  m_GenerateMotionCurves: 0
  m_Events: []
